Siesta Version: SIESTA_VERSION
Architecture  : SIESTA_ARCH
Compiler flags: FFLAGS
SERIAL version

* Running in serial mode
>> Start of run:   4-FEB-2022  14:20:48

                           ***********************       
                           *  WELCOME TO SIESTA  *       
                           ***********************       

reinit: Reading from standard input
************************** Dump of input data file ****************************
SystemName          Water molecule
SystemLabel         h2o
NumberOfAtoms       6
NumberOfSpecies     2
MeshCutoff  150 Ry
%block ChemicalSpeciesLabel
 1  8  O      # Species index, atomic number, species label
 2  1  H
%endblock ChemicalSpeciesLabel
AtomicCoordinatesFormat  Ang
%block AtomicCoordinatesAndAtomicSpecies
 0.000  0.000  0.000  1
 0.757  0.586  0.000  2
-0.757  0.586  0.000  2
 0.000  2.500  0.000  1
 0.757  3.086  0.000  2
-0.757  3.086  0.000  2
%endblock AtomicCoordinatesAndAtomicSpecies
AtomicCoordinatesFormat  Ang
LatticeConstant   1.0 Ang
%block LatticeVectors
 20.0   0.0    0.0
  0.0  20.0    0.0
  0.0   0.0   20.0
%endblock LatticeVectors
************************** End of input data file *****************************

reinit: -----------------------------------------------------------------------
reinit: System Name: Water molecule
reinit: -----------------------------------------------------------------------
reinit: System Label: h2o                                                         
reinit: -----------------------------------------------------------------------

initatom: Reading input for the pseudopotentials and atomic orbitals ----------
 Species number:            1  Label: O Atomic number:           8
 Species number:            2  Label: H Atomic number:           1
Ground state valence configuration:   2s02  2p04
Reading pseudopotential information in formatted form from O.psf

Valence configuration for pseudopotential generation:
2s( 2.00) rc: 1.14
2p( 4.00) rc: 1.14
3d( 0.00) rc: 1.14
4f( 0.00) rc: 1.14
Ground state valence configuration:   1s01
Reading pseudopotential information in formatted form from H.psf

Valence configuration for pseudopotential generation:
1s( 1.00) rc: 1.25
2p( 0.00) rc: 1.25
3d( 0.00) rc: 1.25
4f( 0.00) rc: 1.25
For O, standard SIESTA heuristics set lmxkb to 3
 (one more than the basis l, including polarization orbitals).
Use PS.lmax or PS.KBprojectors blocks to override.
For H, standard SIESTA heuristics set lmxkb to 2
 (one more than the basis l, including polarization orbitals).
Use PS.lmax or PS.KBprojectors blocks to override.

<basis_specs>
===============================================================================
O                    Z=   8    Mass=  16.000        Charge= 0.17977+309
Lmxo=1 Lmxkb= 3    BasisType=split      Semic=F
L=0  Nsemic=0  Cnfigmx=2
          n=1  nzeta=2  polorb=0
            splnorm:   0.15000    
               vcte:    0.0000    
               rinn:    0.0000    
                rcs:    0.0000      0.0000    
            lambdas:    1.0000      1.0000    
L=1  Nsemic=0  Cnfigmx=2
          n=1  nzeta=2  polorb=1
            splnorm:   0.15000    
               vcte:    0.0000    
               rinn:    0.0000    
                rcs:    0.0000      0.0000    
            lambdas:    1.0000      1.0000    
-------------------------------------------------------------------------------
L=0  Nkbl=1  erefs: 0.17977+309
L=1  Nkbl=1  erefs: 0.17977+309
L=2  Nkbl=1  erefs: 0.17977+309
L=3  Nkbl=1  erefs: 0.17977+309
===============================================================================
</basis_specs>

atom: Called for O                     (Z =   8)

read_vps: Pseudopotential generation method:
read_vps: ATM3      Troullier-Martins                       
Total valence charge:    6.00000

xc_check: Exchange-correlation functional:
xc_check: Ceperley-Alder
V l=0 = -2*Zval/r beyond r=  1.1278
V l=1 = -2*Zval/r beyond r=  1.1278
V l=2 = -2*Zval/r beyond r=  1.1278
V l=3 = -2*Zval/r beyond r=  1.1138
All V_l potentials equal beyond r=  1.1278
This should be close to max(r_c) in ps generation
All pots = -2*Zval/r beyond r=  1.1278

VLOCAL1: 99.0% of the norm of Vloc inside     34.126 Ry
VLOCAL1: 99.9% of the norm of Vloc inside     77.774 Ry
atom: Maximum radius for 4*pi*r*r*local-pseudopot. charge    1.37759
atom: Maximum radius for r*vlocal+2*Zval:    1.18566
GHOST: No ghost state for L =  0
GHOST: No ghost state for L =  1
GHOST: No ghost state for L =  2
GHOST: No ghost state for L =  3

KBgen: Kleinman-Bylander projectors: 
   l= 0   rc=  1.294105   el= -1.742414   Ekb=  9.135903   kbcos=  0.326910
   l= 1   rc=  1.294105   el= -0.676589   Ekb= -8.124878   kbcos= -0.395047
   l= 2   rc=  1.448233   el=  0.002386   Ekb= -2.039267   kbcos= -0.003484
   l= 3   rc=  1.561052   el=  0.003508   Ekb= -0.799141   kbcos= -0.000344

KBgen: Total number of  Kleinman-Bylander projectors:   16
atom: -------------------------------------------------------------------------

atom: SANKEY-TYPE ORBITALS:
atom: Selected multiple-zeta basis: split     

SPLIT: Orbitals with angular momentum L= 0

SPLIT: Basis orbitals for state 2s

SPLIT: PAO cut-off radius determined from an
SPLIT: energy shift=  0.020000 Ry

   izeta = 1
                 lambda =    1.000000
                     rc =    3.305093
                 energy =   -1.723766
                kinetic =    1.614911
    potential(screened) =   -3.338677
       potential(ionic) =  -11.304675

   izeta = 2
                 rmatch =    2.510382
              splitnorm =    0.150000
                 energy =   -1.471299
                kinetic =    2.446434
    potential(screened) =   -3.917732
       potential(ionic) =  -12.476133

SPLIT: Orbitals with angular momentum L= 1

SPLIT: Basis orbitals for state 2p

SPLIT: PAO cut-off radius determined from an
SPLIT: energy shift=  0.020000 Ry

   izeta = 1
                 lambda =    1.000000
                     rc =    3.937239
                 energy =   -0.658841
                kinetic =    5.005986
    potential(screened) =   -5.664827
       potential(ionic) =  -13.452360

   izeta = 2
                 rmatch =    2.541963
              splitnorm =    0.150000
                 energy =   -0.367441
                kinetic =    7.530509
    potential(screened) =   -7.897949
       potential(ionic) =  -16.611953

POLgen: Perturbative polarization orbital with L=  2

POLgen: Polarization orbital for state 2p

   izeta = 1
                     rc =    3.937239
                 energy =    2.398520
                kinetic =    4.716729
    potential(screened) =   -2.318209
       potential(ionic) =   -8.603170
atom: Total number of Sankey-type orbitals: 13

atm_pop: Valence configuration (for local Pseudopot. screening):
 2s( 2.00)                                                            
 2p( 4.00)                                                            
Vna: chval, zval:    6.00000   6.00000

Vna:  Cut-off radius for the neutral-atom potential:   3.937239

atom: _________________________________________________________________________

<basis_specs>
===============================================================================
H                    Z=   1    Mass=  1.0100        Charge= 0.17977+309
Lmxo=0 Lmxkb= 2    BasisType=split      Semic=F
L=0  Nsemic=0  Cnfigmx=1
          n=1  nzeta=2  polorb=1
            splnorm:   0.15000    
               vcte:    0.0000    
               rinn:    0.0000    
                rcs:    0.0000      0.0000    
            lambdas:    1.0000      1.0000    
-------------------------------------------------------------------------------
L=0  Nkbl=1  erefs: 0.17977+309
L=1  Nkbl=1  erefs: 0.17977+309
L=2  Nkbl=1  erefs: 0.17977+309
===============================================================================
</basis_specs>

atom: Called for H                     (Z =   1)

read_vps: Pseudopotential generation method:
read_vps: ATM3      Troullier-Martins                       
Total valence charge:    1.00000

xc_check: Exchange-correlation functional:
xc_check: Ceperley-Alder
V l=0 = -2*Zval/r beyond r=  1.2343
V l=1 = -2*Zval/r beyond r=  1.2189
V l=2 = -2*Zval/r beyond r=  1.2189
All V_l potentials equal beyond r=  1.2343
This should be close to max(r_c) in ps generation
All pots = -2*Zval/r beyond r=  1.2343

VLOCAL1: 99.0% of the norm of Vloc inside     28.493 Ry
VLOCAL1: 99.9% of the norm of Vloc inside     64.935 Ry
atom: Maximum radius for 4*pi*r*r*local-pseudopot. charge    1.45251
atom: Maximum radius for r*vlocal+2*Zval:    1.21892
GHOST: No ghost state for L =  0
GHOST: No ghost state for L =  1
GHOST: No ghost state for L =  2

KBgen: Kleinman-Bylander projectors: 
   l= 0   rc=  1.364359   el= -0.467325   Ekb= -2.005361   kbcos= -0.336422
   l= 1   rc=  1.434438   el=  0.001430   Ekb= -0.501708   kbcos= -0.021697
   l= 2   rc=  1.470814   el=  0.002365   Ekb= -0.190555   kbcos= -0.002281

KBgen: Total number of  Kleinman-Bylander projectors:    9
atom: -------------------------------------------------------------------------

atom: SANKEY-TYPE ORBITALS:
atom: Selected multiple-zeta basis: split     

SPLIT: Orbitals with angular momentum L= 0

SPLIT: Basis orbitals for state 1s

SPLIT: PAO cut-off radius determined from an
SPLIT: energy shift=  0.020000 Ry

   izeta = 1
                 lambda =    1.000000
                     rc =    4.828263
                 energy =   -0.449375
                kinetic =    0.929372
    potential(screened) =   -1.378747
       potential(ionic) =   -1.915047

   izeta = 2
                 rmatch =    3.854947
              splitnorm =    0.150000
                 energy =   -0.336153
                kinetic =    1.505294
    potential(screened) =   -1.841447
       potential(ionic) =   -2.413582

POLgen: Perturbative polarization orbital with L=  1

POLgen: Polarization orbital for state 1s

   izeta = 1
                     rc =    4.828263
                 energy =    0.706972
                kinetic =    1.396397
    potential(screened) =   -0.689424
       potential(ionic) =   -1.169792
atom: Total number of Sankey-type orbitals:  5

atm_pop: Valence configuration (for local Pseudopot. screening):
 1s( 1.00)                                                            
Vna: chval, zval:    1.00000   1.00000

Vna:  Cut-off radius for the neutral-atom potential:   4.828263

atom: _________________________________________________________________________

prinput: Basis input ----------------------------------------------------------

PAO.BasisType split     

%block ChemicalSpeciesLabel
    1    8 O                       # Species index, atomic number, species label
    2    1 H                       # Species index, atomic number, species label
%endblock ChemicalSpeciesLabel

%block PAO.Basis                 # Define Basis set
O                     2                    # Species label, number of l-shells
 n=2   0   2                         # n, l, Nzeta 
   3.305      2.510   
   1.000      1.000   
 n=2   1   2 P   1                   # n, l, Nzeta, Polarization, NzetaPol
   3.937      2.542   
   1.000      1.000   
H                     1                    # Species label, number of l-shells
 n=1   0   2 P   1                   # n, l, Nzeta, Polarization, NzetaPol
   4.828      3.855   
   1.000      1.000   
%endblock PAO.Basis

prinput: ----------------------------------------------------------------------

coor:   Atomic-coordinates input format  =     Cartesian coordinates
coor:                                          (in Angstroms)

siesta: Atomic coordinates (Bohr) and species
siesta:      0.00000   0.00000   0.00000  1        1
siesta:      1.43052   1.10738   0.00000  2        2
siesta:     -1.43052   1.10738   0.00000  2        3
siesta:      0.00000   4.72432   0.00000  1        4
siesta:      1.43052   5.83170   0.00000  2        5
siesta:     -1.43052   5.83170   0.00000  2        6

siesta: System type = molecule  

initatomlists: Number of atoms, orbitals, and projectors:      6    46    68

siesta: ******************** Simulation parameters ****************************
siesta:
siesta: The following are some of the parameters of the simulation.
siesta: A complete list of the parameters used, including default values,
siesta: can be found in file out.fdf
siesta:
redata: Non-Collinear-spin run           =     F
redata: SpinPolarized (Up/Down) run      =     F
redata: Number of spin components        =     1
redata: Long output                      =     F
redata: Number of Atomic Species         =        2
redata: Charge density info will appear in .RHO file
redata: Write Mulliken Pop.              =     NO
redata: Mesh Cutoff                      =   150.0000  Ry
redata: Net charge of the system         =     0.0000 |e|
redata: Max. number of SCF Iter          =       50
redata: Mixing is linear
redata: Mix DM in first SCF step ?       =     F
redata: Write Pulay info on disk?        =     F
redata: Discard 1st Pulay DM after  kick =     F
redata: New DM Mixing Weight             =     0.2500
redata: New DM Occupancy tolerance       = 0.000000000001
redata: No kicks to SCF
redata: DM Mixing Weight for Kicks       =     0.5000
redata: DM Tolerance for SCF             =     0.000100
redata: Require Energy convergence for SCF =     F
redata: DM Energy tolerance for SCF      =     0.000100 eV
redata: Require Harris convergence for SCF =     F
redata: DM Harris energy tolerance for SCF =     0.000100 eV
redata: Using Saved Data (generic)   =     F
redata: Use continuation files for DM    =     F
redata: Neglect nonoverlap interactions  =     F
redata: Method of Calculation            =     Diagonalization
redata: Divide and Conquer               =     T
redata: Electronic Temperature           =     0.0019  Ry
redata: Fix the spin of the system       =     F
redata: Dynamics option                  =     Verlet MD run
redata: Initial MD time step             =        1
redata:   Final MD time step             =        1
redata: Length of MD time step           =     1.0000  fs
redata: Initial Temperature of MD run    =     0.0000  K
redata: Perform a MD quench              =     F
redata: ***********************************************************************
Total number of electrons:    16.000000
Total ionic charge:    16.000000
 Kpoints in:            1 . Kpoints trimmed:            1

siesta: k-grid: Number of k-points =     1
siesta: k-grid: Cutoff (effective) =    10.000 Ang
siesta: k-grid: Supercell and displacements
siesta: k-grid:    1   0   0      0.000
siesta: k-grid:    0   1   0      0.000
siesta: k-grid:    0   0   1      0.000

* Maximum dynamic memory allocated =     2 MB

siesta:                 ==============================
                            Begin MD step =      1
                        ==============================

outcell: Unit cell vectors (Ang):
       20.000000    0.000000    0.000000
        0.000000   20.000000    0.000000
        0.000000    0.000000   20.000000

outcell: Cell vector modules (Ang)   :   20.000000   20.000000   20.000000
outcell: Cell angles (23,13,12) (deg):     90.0000     90.0000     90.0000
outcell: Cell volume (Ang**3)        :   8000.0000
New_DM. Step:     1
Initializing Density Matrix...

InitMesh: MESH =   150 x   150 x   150 =     3375000
InitMesh: Mesh cutoff (required, used) =   150.000   155.462 Ry

* Maximum dynamic memory allocated =   107 MB

stepf: Fermi-Dirac step function

siesta: Program's energy decomposition (eV):
siesta: Ebs     =      -249.038002
siesta: Eions   =      1631.708957
siesta: Ena     =       350.048679
siesta: Ekin    =       683.334811
siesta: Enl     =      -105.456402
siesta: DEna    =        -0.000002
siesta: DUscf   =         0.000000
siesta: DUext   =         0.000000
siesta: Exc     =      -220.417757
siesta: eta*DQ  =         0.000000
siesta: Emadel  =         0.000000
siesta: Emeta   =         0.000000
siesta: Emolmec =         0.000000
siesta: Ekinion =         0.000000
siesta: Eharris =      -933.374981
siesta: Etot    =      -924.199628
siesta: FreeEng =      -924.199628

siesta: iscf   Eharris(eV)      E_KS(eV)   FreeEng(eV)   dDmax  Ef(eV)
siesta:    1     -933.3750     -924.1996     -924.1996  1.4523 -3.8329
timer: Routine,Calls,Time,% = IterSCF        1       1.794  77.27
elaps: Routine,Calls,Wall,% = IterSCF        1       1.787  87.26
siesta:    2     -934.5007     -930.4394     -930.4394  0.2531 -0.3285
siesta:    3     -932.1598     -930.9989     -930.9989  0.0880 -1.6170
siesta:    4     -931.9598     -931.2509     -931.2509  0.0340 -1.9989
siesta:    5     -931.9402     -931.4244     -931.4244  0.0149 -2.1102
siesta:    6     -931.9381     -931.5530     -931.5530  0.0091 -2.1405
siesta:    7     -931.9378     -931.6492     -931.6492  0.0072 -2.1473
siesta:    8     -931.9377     -931.7213     -931.7213  0.0053 -2.1476
siesta:    9     -931.9378     -931.7755     -931.7755  0.0039 -2.1466
siesta:   10     -931.9377     -931.8160     -931.8160  0.0028 -2.1456
siesta:   11     -931.9378     -931.8465     -931.8465  0.0020 -2.1448
siesta:   12     -931.9378     -931.8693     -931.8693  0.0015 -2.1443
siesta:   13     -931.9377     -931.8864     -931.8864  0.0011 -2.1440
siesta:   14     -931.9378     -931.8993     -931.8993  0.0008 -2.1437
siesta:   15     -931.9377     -931.9089     -931.9089  0.0006 -2.1436
siesta:   16     -931.9378     -931.9161     -931.9161  0.0004 -2.1435
siesta:   17     -931.9378     -931.9215     -931.9215  0.0003 -2.1434
siesta:   18     -931.9378     -931.9256     -931.9256  0.0002 -2.1434
siesta:   19     -931.9378     -931.9286     -931.9286  0.0002 -2.1433
siesta:   20     -931.9377     -931.9309     -931.9309  0.0001 -2.1433
siesta:   21     -931.9377     -931.9326     -931.9326  0.0001 -2.1433

dhscf: ***********************************************************************
dhscf: WARNING: External potential file not found!
dhscf: WARNING: No external potential is being used
dhscf: ***********************************************************************

siesta: E_KS(eV) =             -931.9339

siesta: E_KS - E_eggbox =      -931.9339

siesta: Atomic forces (eV/Ang):
----------------------------------------
   Tot    0.000002    0.043424   -0.000000
----------------------------------------
   Max    1.710352
   Res    0.547392    sqrt( Sum f_i^2 / 3N )
----------------------------------------
   Max    1.710352    constrained

Stress-tensor-Voigt (kbar):       -0.30       -0.57       -0.01        0.00       -0.00        0.00
(Free)E + p*V (eV/cell)     -930.4682
Target enthalpy (eV/cell)     -931.9339

siesta: Stress tensor (static) (eV/Ang**3):
        -0.000189    0.000000    0.000000
         0.000000   -0.000356   -0.000000
         0.000000   -0.000000   -0.000005

siesta: Pressure (static):          0.29354828  kBar

siesta: Stress tensor (total) (eV/Ang**3):
        -0.000189    0.000000    0.000000
         0.000000   -0.000356   -0.000000
         0.000000   -0.000000   -0.000005

siesta: Pressure (total):          0.29354828  kBar

siesta: Temp_ion =       0.000 K

* Maximum dynamic memory allocated =   107 MB

siesta: Program's energy decomposition (eV):
siesta: Ebs     =      -207.747833
siesta: Eions   =      1631.708957
siesta: Ena     =       350.048679
siesta: Ekin    =       708.050385
siesta: Enl     =      -126.617456
siesta: DEna    =        -6.569394
siesta: DUscf   =         1.512216
siesta: DUext   =         0.000000
siesta: Exc     =      -226.649376
siesta: eta*DQ  =         0.000000
siesta: Emadel  =         0.000000
siesta: Emeta   =         0.000000
siesta: Emolmec =         0.000000
siesta: Ekinion =         0.000000
siesta: Eharris =      -931.937728
siesta: Etot    =      -931.933903
siesta: FreeEng =      -931.933903

siesta: Final energy (eV):
siesta:  Band Struct. =    -207.747833
siesta:       Kinetic =     708.050385
siesta:       Hartree =    1282.399363
siesta:    Ext. field =       0.000000
siesta:   Exch.-corr. =    -226.649376
siesta:  Ion-electron =   -3183.626323
siesta:       Ion-ion =     487.892049
siesta:       Ekinion =       0.000000
siesta:         Total =    -931.933903

siesta: Atomic forces (eV/Ang):
siesta:      1    0.000000   -1.710352    0.000000
siesta:      2    0.227438    0.512425   -0.000000
siesta:      3   -0.227438    0.512424    0.000000
siesta:      4    0.000003   -0.343139   -0.000000
siesta:      5    0.757350    0.536032   -0.000000
siesta:      6   -0.757352    0.536033   -0.000000
siesta: ----------------------------------------
siesta:    Tot    0.000002    0.043424   -0.000000

siesta: Stress tensor (static) (eV/Ang**3):
siesta:    -0.000189    0.000000    0.000000
siesta:     0.000000   -0.000356   -0.000000
siesta:     0.000000   -0.000000   -0.000005

siesta: Cell volume =       8000.000000 Ang**3

siesta: Pressure (static):
siesta:                Solid            Molecule  Units
siesta:           0.00000200         -0.00000003  Ry/Bohr**3
siesta:           0.00018322         -0.00000307  eV/Ang**3
siesta:           0.29354828         -0.00491608  kBar
(Free)E+ p_basis*V_orbitals  =        -930.763568
(Free)Eharris+ p_basis*V_orbitals  =        -930.768708

siesta: Electric dipole (a.u.)  =    0.000000    1.378930   -0.000000
siesta: Electric dipole (Debye) =    0.000000    3.504892   -0.000000
 optical!!

* Maximum dynamic memory allocated : Node    0 =   107 MB

* Maximum memory occured during poison                        

timer: CPU execution times:
timer:  Routine       Calls   Time/call    Tot.time        %
timer:  siesta            1      23.598      23.598   100.00
timer:  Setup             1       0.379       0.379     1.61
timer:  bands             1       0.000       0.000     0.00
timer:  writewave         1       0.000       0.000     0.00
timer:  KSV_init          1       0.000       0.000     0.00
timer:  IterMD            1      23.217      23.217    98.39
timer:  hsparse           1       0.000       0.000     0.00
timer:  overlap           1       0.148       0.148     0.63
timer:  IterSCF          21       1.042      21.874    92.69
timer:  kinefsm           2       0.069       0.139     0.59
timer:  nlefsm            2       0.206       0.412     1.75
timer:  DHSCF            22       1.017      22.373    94.81
timer:  DHSCF1            1       0.075       0.075     0.32
timer:  DHSCF2            1       0.505       0.505     2.14
timer:  REORD           178       0.019       3.402    14.42
timer:  POISON           23       0.333       7.657    32.45
timer:  DHSCF3           22       0.926      20.379    86.36
timer:  rhoofd           22       0.228       5.018    21.26
timer:  cellXC           22       0.033       0.734     3.11
timer:  vmat             22       0.039       0.854     3.62
timer:  MolMec            2       0.000       0.000     0.00
timer:  diagon           21       0.003       0.064     0.27
timer:  r-eigvec         21       0.003       0.058     0.25
timer:  r-buildHS        21       0.000       0.000     0.00
timer:  rdiag            21       0.003       0.058     0.24
timer:  rdiag1           21       0.000       0.010     0.04
timer:  rdiag2           21       0.000       0.010     0.04
timer:  rdiag3           21       0.002       0.035     0.15
timer:  rdiag4           21       0.000       0.001     0.00
timer:  r-buildD         21       0.000       0.004     0.02
timer:  DHSCF4            1       0.182       0.182     0.77
timer:  dfscf             1       0.169       0.169     0.72
timer:  overfsm           1       0.001       0.001     0.00
timer:  optical           1       0.000       0.000     0.00
  

elaps: ELAPSED times:
elaps:  Routine       Calls   Time/call    Tot.time        %
elaps:  siesta            1      16.788      16.788   100.00
elaps:  Setup             1       0.112       0.112     0.67
elaps:  bands             1       0.000       0.000     0.00
elaps:  writewave         1       0.000       0.000     0.00
elaps:  KSV_init          1       0.001       0.001     0.01
elaps:  IterMD            1      16.675      16.675    99.33
elaps:  hsparse           1       0.000       0.000     0.00
elaps:  overlap           1       0.148       0.148     0.88
elaps:  IterSCF          21       0.745      15.640    93.16
elaps:  kinefsm           2       0.068       0.137     0.82
elaps:  nlefsm            2       0.194       0.389     2.32
elaps:  DHSCF            22       0.724      15.926    94.87
elaps:  DHSCF1            1       0.076       0.076     0.45
elaps:  DHSCF2            1       0.505       0.505     3.01
elaps:  REORD           178       0.014       2.488    14.82
elaps:  POISON           23       0.333       7.657    45.61
elaps:  DHSCF3           22       0.674      14.833    88.35
elaps:  rhoofd           22       0.061       1.338     7.97
elaps:  cellXC           22       0.033       0.735     4.38
elaps:  vmat             22       0.039       0.854     5.09
elaps:  MolMec            2       0.000       0.000     0.00
elaps:  diagon           21       0.001       0.020     0.12
elaps:  r-eigvec         21       0.001       0.017     0.10
elaps:  r-buildHS        21       0.000       0.000     0.00
elaps:  rdiag            21       0.001       0.017     0.10
elaps:  rdiag1           21       0.000       0.003     0.02
elaps:  rdiag2           21       0.000       0.002     0.01
elaps:  rdiag3           21       0.001       0.011     0.07
elaps:  rdiag4           21       0.000       0.001     0.01
elaps:  r-buildD         21       0.000       0.001     0.01
elaps:  DHSCF4            1       0.183       0.183     1.09
elaps:  dfscf             1       0.170       0.170     1.01
elaps:  overfsm           1       0.001       0.001     0.01
elaps:  optical           1       0.000       0.000     0.00
  
>> End of run:   4-FEB-2022  14:21:05
